summer/iterative/ash.vcd
$date
     May 17, 2018       20:15:06
$end

$version
 SystemC 2.3.2-Accellera --- May 16 2018 17:23:16
$end

$timescale
     1 ps
$end

$scope module SystemC $end
$var wire    1  aaaaa  Clock       $end
$scope module Alpha_13_In $end
$var wire   32  aaabp  data [31:0]  $end
$var wire   32  aaabq  tag [31:0]  $end
$var wire   32  aaabr  address [31:0]  $end
$var wire   32  aaabs  port [31:0]  $end
$upscope $end
$scope module Alpha_17_In $end
$var wire   32  aaacf  data [31:0]  $end
$var wire   32  aaacg  tag [31:0]  $end
$var wire   32  aaach  address [31:0]  $end
$var wire   32  aaaci  port [31:0]  $end
$upscope $end
$scope module Alpha_24_In $end
$var wire   32  aaacz  data [31:0]  $end
$var wire   32  aaada  tag [31:0]  $end
$var wire   32  aaadb  address [31:0]  $end
$var wire   32  aaadc  port [31:0]  $end
$upscope $end
$scope module Beta_07_In $end
$var wire   32  aaaaz  data [31:0]  $end
$var wire   32  aaaba  tag [31:0]  $end
$var wire   32  aaabb  address [31:0]  $end
$var wire   32  aaabc  port [31:0]  $end
$upscope $end
$scope module Beta_16_In $end
$var wire   32  aaacb  data [31:0]  $end
$var wire   32  aaacc  tag [31:0]  $end
$var wire   32  aaacd  address [31:0]  $end
$var wire   32  aaace  port [31:0]  $end
$upscope $end
$scope module Beta_26_In $end
$var wire   32  aaadh  data [31:0]  $end
$var wire   32  aaadi  tag [31:0]  $end
$var wire   32  aaadj  address [31:0]  $end
$var wire   32  aaadk  port [31:0]  $end
$upscope $end
$scope module Compare_10_In $end
$var wire   32  aaabd  data [31:0]  $end
$var wire   32  aaabe  tag [31:0]  $end
$var wire   32  aaabf  address [31:0]  $end
$var wire   32  aaabg  port [31:0]  $end
$upscope $end
$scope module Constant_01_In $end
$var wire   32  aaaab  data [31:0]  $end
$var wire   32  aaaac  tag [31:0]  $end
$var wire   32  aaaad  address [31:0]  $end
$var wire   32  aaaae  port [31:0]  $end
$upscope $end
$scope module Constant_06_In $end
$var wire   32  aaaav  data [31:0]  $end
$var wire   32  aaaaw  tag [31:0]  $end
$var wire   32  aaaax  address [31:0]  $end
$var wire   32  aaaay  port [31:0]  $end
$upscope $end
$scope module Constant_32_In $end
$var wire   32  aaadx  data [31:0]  $end
$var wire   32  aaady  tag [31:0]  $end
$var wire   32  aaadz  address [31:0]  $end
$var wire   32  aaaea  port [31:0]  $end
$upscope $end
$scope module Constant_32_Out $end
$var wire   32  aaaeb  data [31:0]  $end
$var wire   32  aaaec  tag [31:0]  $end
$var wire   32  aaaed  address [31:0]  $end
$var wire   32  aaaee  port [31:0]  $end
$upscope $end
$scope module Copy_11_In $end
$var wire   32  aaabh  data [31:0]  $end
$var wire   32  aaabi  tag [31:0]  $end
$var wire   32  aaabj  address [31:0]  $end
$var wire   32  aaabk  port [31:0]  $end
$upscope $end
$scope module Copy_12_In $end
$var wire   32  aaabl  data [31:0]  $end
$var wire   32  aaabm  tag [31:0]  $end
$var wire   32  aaabn  address [31:0]  $end
$var wire   32  aaabo  port [31:0]  $end
$upscope $end
$scope module Copy_23_In $end
$var wire   32  aaacv  data [31:0]  $end
$var wire   32  aaacw  tag [31:0]  $end
$var wire   32  aaacx  address [31:0]  $end
$var wire   32  aaacy  port [31:0]  $end
$upscope $end
$scope module Copy_25_In $end
$var wire   32  aaadd  data [31:0]  $end
$var wire   32  aaade  tag [31:0]  $end
$var wire   32  aaadf  address [31:0]  $end
$var wire   32  aaadg  port [31:0]  $end
$upscope $end
$scope module Copy_30_In $end
$var wire   32  aaadp  data [31:0]  $end
$var wire   32  aaadq  tag [31:0]  $end
$var wire   32  aaadr  address [31:0]  $end
$var wire   32  aaads  port [31:0]  $end
$upscope $end
$scope module Copy_31_In $end
$var wire   32  aaadt  data [31:0]  $end
$var wire   32  aaadu  tag [31:0]  $end
$var wire   32  aaadv  address [31:0]  $end
$var wire   32  aaadw  port [31:0]  $end
$upscope $end
$scope module Epsilon_02_In $end
$var wire   32  aaaaf  data [31:0]  $end
$var wire   32  aaaag  tag [31:0]  $end
$var wire   32  aaaah  address [31:0]  $end
$var wire   32  aaaai  port [31:0]  $end
$upscope $end
$scope module Multiply_15_In $end
$var wire   32  aaabx  data [31:0]  $end
$var wire   32  aaaby  tag [31:0]  $end
$var wire   32  aaabz  address [31:0]  $end
$var wire   32  aaaca  port [31:0]  $end
$upscope $end
$scope module Sink_03_In $end
$var wire   32  aaaaj  data [31:0]  $end
$var wire   32  aaaak  tag [31:0]  $end
$var wire   32  aaaal  address [31:0]  $end
$var wire   32  aaaam  port [31:0]  $end
$upscope $end
$scope module Sink_04_In $end
$var wire   32  aaaan  data [31:0]  $end
$var wire   32  aaaao  tag [31:0]  $end
$var wire   32  aaaap  address [31:0]  $end
$var wire   32  aaaaq  port [31:0]  $end
$upscope $end
$scope module Sink_05_In $end
$var wire   32  aaaar  data [31:0]  $end
$var wire   32  aaaas  tag [31:0]  $end
$var wire   32  aaaat  address [31:0]  $end
$var wire   32  aaaau  port [31:0]  $end
$upscope $end
$scope module Sink_20_In $end
$var wire   32  aaacj  data [31:0]  $end
$var wire   32  aaack  tag [31:0]  $end
$var wire   32  aaacl  address [31:0]  $end
$var wire   32  aaacm  port [31:0]  $end
$upscope $end
$scope module Sink_21_In $end
$var wire   32  aaacn  data [31:0]  $end
$var wire   32  aaaco  tag [31:0]  $end
$var wire   32  aaacp  address [31:0]  $end
$var wire   32  aaacq  port [31:0]  $end
$upscope $end
$scope module Sink_22_In $end
$var wire   32  aaacr  data [31:0]  $end
$var wire   32  aaacs  tag [31:0]  $end
$var wire   32  aaact  address [31:0]  $end
$var wire   32  aaacu  port [31:0]  $end
$upscope $end
$scope module Sink_27_In $end
$var wire   32  aaadl  data [31:0]  $end
$var wire   32  aaadm  tag [31:0]  $end
$var wire   32  aaadn  address [31:0]  $end
$var wire   32  aaado  port [31:0]  $end
$upscope $end
$scope module Sink_33_In $end
$var wire   32  aaaef  data [31:0]  $end
$var wire   32  aaaeg  tag [31:0]  $end
$var wire   32  aaaeh  address [31:0]  $end
$var wire   32  aaaei  port [31:0]  $end
$upscope $end
$scope module Subtract_14_In $end
$var wire   32  aaabt  data [31:0]  $end
$var wire   32  aaabu  tag [31:0]  $end
$var wire   32  aaabv  address [31:0]  $end
$var wire   32  aaabw  port [31:0]  $end
$upscope $end
$upscope $end
$enddefinitions  $end

$comment
All initial values are dumped below at time 0 sec = 0 timescale units.
$end

$dumpvars
0aaaaa
b0 aaaab
b0 aaaac
b0 aaaad
b0 aaaae
b0 aaaaf
b0 aaaag
b0 aaaah
b0 aaaai
b0 aaaaj
b0 aaaak
b0 aaaal
b0 aaaam
b0 aaaan
b0 aaaao
b0 aaaap
b0 aaaaq
b0 aaaar
b0 aaaas
b0 aaaat
b0 aaaau
b0 aaaav
b0 aaaaw
b0 aaaax
b0 aaaay
b0 aaaaz
b0 aaaba
b0 aaabb
b0 aaabc
b0 aaabd
b0 aaabe
b0 aaabf
b0 aaabg
b0 aaabh
b0 aaabi
b0 aaabj
b0 aaabk
b0 aaabl
b0 aaabm
b0 aaabn
b0 aaabo
b0 aaabp
b0 aaabq
b0 aaabr
b0 aaabs
b0 aaabt
b0 aaabu
b0 aaabv
b0 aaabw
b0 aaabx
b0 aaaby
b0 aaabz
b0 aaaca
b0 aaacb
b0 aaacc
b0 aaacd
b0 aaace
b0 aaacf
b0 aaacg
b0 aaach
b0 aaaci
b0 aaacj
b0 aaack
b0 aaacl
b0 aaacm
b0 aaacn
b0 aaaco
b0 aaacp
b0 aaacq
b0 aaacr
b0 aaacs
b0 aaact
b0 aaacu
b0 aaacv
b0 aaacw
b0 aaacx
b0 aaacy
b0 aaacz
b0 aaada
b0 aaadb
b0 aaadc
b0 aaadd
b0 aaade
b0 aaadf
b0 aaadg
b0 aaadh
b0 aaadi
b0 aaadj
b0 aaadk
b0 aaadl
b0 aaadm
b0 aaadn
b0 aaado
b0 aaadp
b0 aaadq
b0 aaadr
b0 aaads
b0 aaadt
b0 aaadu
b0 aaadv
b0 aaadw
b0 aaadx
b0 aaady
b0 aaadz
b0 aaaea
b0 aaaeb
b0 aaaec
b0 aaaed
b0 aaaee
b0 aaaef
b0 aaaeg
b0 aaaeh
b0 aaaei
$end

#5000
1aaaaa

#10000
0aaaaa

#15000
1aaaaa

#20000
0aaaaa
b1 aaaab
b1 aaaad

#25000
1aaaaa

#30000
0aaaaa

#35000
1aaaaa

#40000
0aaaaa
b11 aaaaf
b10 aaaah

#45000
1aaaaa

#50000
0aaaaa

#55000
1aaaaa

#60000
0aaaaa

#65000
1aaaaa

#70000
0aaaaa

#75000
1aaaaa

#80000
0aaaaa

#85000
1aaaaa

#90000
0aaaaa
b11 aaaar
b101 aaaat
b1 aaaau
b1 aaaav
b110 aaaax

#95000
1aaaaa

#100000
0aaaaa

#105000
1aaaaa

#110000
0aaaaa
b101 aaaaz
b111 aaabb
b1 aaabc

#115000
1aaaaa

#120000
0aaaaa

#125000
1aaaaa

#130000
0aaaaa

#135000
1aaaaa

#140000
0aaaaa
b101 aaabd
b10000000000000000 aaabf
b1 aaabg

#145000
1aaaaa

#150000
0aaaaa

#155000
1aaaaa

#160000
0aaaaa

#165000
1aaaaa

#170000
0aaaaa

#175000
1aaaaa

#180000
0aaaaa
b101 aaadt
b110000000000000001 aaadv
b1 aaadw

#185000
1aaaaa

#190000
0aaaaa
b101 aaabp
b10000000000000011 aaabr
b1 aaabs

#195000
1aaaaa

#200000
0aaaaa

#205000
1aaaaa

#210000
0aaaaa
b101 aaadx
b110000000000000010 aaadz
b1 aaaeb
b100000000000000110 aaaed
b1 aaaee

#215000
1aaaaa

#220000
0aaaaa
b110000000000000011 aaaed

#225000
1aaaaa

#230000
0aaaaa

#235000
1aaaaa

#240000
0aaaaa
b1 aaaef
b110000000000000011 aaaeh
b1 aaaei

#245000
1aaaaa

#250000
0aaaaa

#255000
1aaaaa

#260000
0aaaaa
b101 aaacb
b10000000000000110 aaacd
b1 aaace

#265000
1aaaaa

#270000
0aaaaa

#275000
1aaaaa

#280000
0aaaaa
b101 aaacf
b10000000000000111 aaach
b1 aaaci

#285000
1aaaaa

#290000
0aaaaa
b1 aaadh
b100000000000000110 aaadj
b1 aaadk

#295000
1aaaaa

#300000
0aaaaa

#305000
1aaaaa

#310000
0aaaaa
b101 aaacj
b100000000000000000 aaacl

#315000
1aaaaa

#320000
0aaaaa

#325000
1aaaaa

#330000
0aaaaa

#335000
1aaaaa

#340000
0aaaaa

#345000
1aaaaa

#350000
0aaaaa
b1 aaabd
b10 aaabg

#355000
1aaaaa

#360000
0aaaaa

#365000
1aaaaa

#370000
0aaaaa
b1 aaabh
b10000000000000001 aaabj
b1 aaabk
b1 aaacz
b100000000000000100 aaadb
b1 aaadc

#375000
1aaaaa

#380000
0aaaaa

#385000
1aaaaa

#390000
0aaaaa
b1 aaabl
b10000000000000010 aaabn
b1 aaabo
b1 aaadp
b110000000000000000 aaadr
b1 aaads

#395000
1aaaaa

#400000
0aaaaa

#405000
1aaaaa

#410000
0aaaaa

#415000
1aaaaa

#420000
0aaaaa

#425000
1aaaaa

#430000
0aaaaa
b1 aaabp
b0 aaabs
b1 aaacv
b100000000000000011 aaacx
b1 aaacy

#435000
1aaaaa

#440000
0aaaaa

#445000
1aaaaa

#450000
0aaaaa
b101 aaabt
b10000000000000100 aaabv
b1 aaabw
b0 aaadc

#455000
1aaaaa

#460000
0aaaaa

#465000
1aaaaa

#470000
0aaaaa
b1 aaadd
b100000000000000101 aaadf
b1 aaadg

#475000
1aaaaa

#480000
0aaaaa
b1 aaaaz
b0 aaabc
b1 aaacb
b0 aaace

#485000
1aaaaa

#490000
0aaaaa

#495000
1aaaaa

#500000
0aaaaa
b0 aaadk

#505000
1aaaaa

#510000
0aaaaa
b10 aaadk

#515000
1aaaaa

#520000
0aaaaa

#525000
1aaaaa

#530000
0aaaaa

#535000
1aaaaa

#540000
0aaaaa
b1 aaacf
b0 aaaci

#545000
1aaaaa

#550000
0aaaaa

#555000
1aaaaa

#560000
0aaaaa

#565000
1aaaaa

#570000
0aaaaa
b1 aaabe

#575000
1aaaaa

#580000
0aaaaa
b1 aaabt
b10 aaabw

#585000
1aaaaa

#590000
0aaaaa
b1 aaada
b1 aaadc

#595000
1aaaaa

#600000
0aaaaa
b100 aaabx
b10000000000000101 aaabz
b1 aaaca

#605000
1aaaaa

#610000
0aaaaa

#615000
1aaaaa

#620000
0aaaaa
b101 aaabx
b10 aaaca

#625000
1aaaaa

#630000
0aaaaa

#635000
1aaaaa

#640000
0aaaaa
b10100 aaacb
b10 aaace

#645000
1aaaaa

#650000
0aaaaa

#655000
1aaaaa

#660000
0aaaaa
b100 aaaaz
b10 aaabc
b10100 aaacf
b1 aaacg
b1 aaaci

#665000
1aaaaa

#670000
0aaaaa

#675000
1aaaaa

#680000
0aaaaa

#685000
1aaaaa

#690000
0aaaaa
b100 aaabd
b1 aaabg

#695000
1aaaaa

#700000
0aaaaa
b10100 aaacj
b1 aaack
b10100 aaacn
b100000000000000001 aaacp
b1 aaacq

#705000
1aaaaa

#710000
0aaaaa
b1 aaabi

#715000
1aaaaa

#720000
0aaaaa

#725000
1aaaaa

#730000
0aaaaa
b1 aaabm
b100 aaabp
b1 aaabq
b1 aaabs
b1 aaadq

#735000
1aaaaa

#740000
0aaaaa

#745000
1aaaaa

#750000
0aaaaa

#755000
1aaaaa

#760000
0aaaaa

#765000
1aaaaa

#770000
0aaaaa
b1 aaabp
b0 aaabs
b1 aaacw

#775000
1aaaaa

#780000
0aaaaa

#785000
1aaaaa

#790000
0aaaaa
b100 aaabt
b1 aaabu
b1 aaabw
b0 aaadc

#795000
1aaaaa

#800000
0aaaaa

#805000
1aaaaa

#810000
0aaaaa
b1 aaade

#815000
1aaaaa

#820000
0aaaaa
b1 aaaaz
b1 aaaba
b0 aaabc
b1 aaacb
b1 aaacc
b0 aaace

#825000
1aaaaa

#830000
0aaaaa

#835000
1aaaaa

#840000
0aaaaa
b1 aaadi
b0 aaadk

#845000
1aaaaa

#850000
0aaaaa
b10 aaadk

#855000
1aaaaa

#860000
0aaaaa

#865000
1aaaaa

#870000
0aaaaa

#875000
1aaaaa

#880000
0aaaaa
b1 aaacf
b0 aaaci

#885000
1aaaaa

#890000
0aaaaa

#895000
1aaaaa

#900000
0aaaaa

#905000
1aaaaa

#910000
0aaaaa
b1 aaabd
b10 aaabe
b10 aaabg

#915000
1aaaaa

#920000
0aaaaa
b1 aaabt
b10 aaabw

#925000
1aaaaa

#930000
0aaaaa
b10 aaada
b1 aaadc

#935000
1aaaaa

#940000
0aaaaa
b11 aaabx
b1 aaaby
b1 aaaca

#945000
1aaaaa

#950000
0aaaaa

#955000
1aaaaa

#960000
0aaaaa
b10100 aaabx
b10 aaaca

#965000
1aaaaa

#970000
0aaaaa

#975000
1aaaaa

#980000
0aaaaa
b111100 aaacb
b10 aaace

#985000
1aaaaa

#990000
0aaaaa

#995000
1aaaaa

#1000000
0aaaaa
b11 aaaaz
b10 aaabc
b111100 aaacf
b10 aaacg
b1 aaaci

#1005000
1aaaaa

#1010000
0aaaaa

#1015000
1aaaaa

#1020000
0aaaaa

#1025000
1aaaaa

#1030000
0aaaaa
b11 aaabd
b1 aaabg

#1035000
1aaaaa

#1040000
0aaaaa
b111100 aaacj
b10 aaack
b111100 aaacn
b1 aaaco

#1045000
1aaaaa

#1050000
0aaaaa
b10 aaabi

#1055000
1aaaaa

#1060000
0aaaaa

#1065000
1aaaaa

#1070000
0aaaaa
b10 aaabm
b11 aaabp
b10 aaabq
b1 aaabs
b10 aaadq

#1075000
1aaaaa

#1080000
0aaaaa

#1085000
1aaaaa

#1090000
0aaaaa

#1095000
1aaaaa

#1100000
0aaaaa

#1105000
1aaaaa

#1110000
0aaaaa
b1 aaabp
b0 aaabs
b10 aaacw

#1115000
1aaaaa

#1120000
0aaaaa

#1125000
1aaaaa

#1130000
0aaaaa
b11 aaabt
b10 aaabu
b1 aaabw
b0 aaadc

#1135000
1aaaaa

#1140000
0aaaaa

#1145000
1aaaaa

#1150000
0aaaaa
b10 aaade

#1155000
1aaaaa

#1160000
0aaaaa
b1 aaaaz
b10 aaaba
b0 aaabc
b1 aaacb
b10 aaacc
b0 aaace

#1165000
1aaaaa

#1170000
0aaaaa

#1175000
1aaaaa

#1180000
0aaaaa
b10 aaadi
b0 aaadk

#1185000
1aaaaa

#1190000
0aaaaa
b10 aaadk

#1195000
1aaaaa

#1200000
0aaaaa

#1205000
1aaaaa

#1210000
0aaaaa

#1215000
1aaaaa

#1220000
0aaaaa
b1 aaacf
b0 aaaci

#1225000
1aaaaa

#1230000
0aaaaa

#1235000
1aaaaa

#1240000
0aaaaa

#1245000
1aaaaa

#1250000
0aaaaa
b1 aaabd
b11 aaabe
b10 aaabg

#1255000
1aaaaa

#1260000
0aaaaa
b1 aaabt
b10 aaabw

#1265000
1aaaaa

#1270000
0aaaaa
b11 aaada
b1 aaadc

#1275000
1aaaaa

#1280000
0aaaaa
b10 aaabx
b10 aaaby
b1 aaaca

#1285000
1aaaaa

#1290000
0aaaaa

#1295000
1aaaaa

#1300000
0aaaaa
b111100 aaabx
b10 aaaca

#1305000
1aaaaa

#1310000
0aaaaa

#1315000
1aaaaa

#1320000
0aaaaa
b1111000 aaacb
b10 aaace

#1325000
1aaaaa

#1330000
0aaaaa

#1335000
1aaaaa

#1340000
0aaaaa
b10 aaaaz
b10 aaabc
b1111000 aaacf
b11 aaacg
b1 aaaci

#1345000
1aaaaa

#1350000
0aaaaa

#1355000
1aaaaa

#1360000
0aaaaa

#1365000
1aaaaa

#1370000
0aaaaa
b10 aaabd
b1 aaabg

#1375000
1aaaaa

#1380000
0aaaaa
b1111000 aaacj
b11 aaack
b1111000 aaacn
b10 aaaco

#1385000
1aaaaa

#1390000
0aaaaa
b11 aaabi

#1395000
1aaaaa

#1400000
0aaaaa

#1405000
1aaaaa

#1410000
0aaaaa
b11 aaabm
b10 aaabp
b11 aaabq
b1 aaabs
b11 aaadq

#1415000
1aaaaa

#1420000
0aaaaa

#1425000
1aaaaa

#1430000
0aaaaa

#1435000
1aaaaa

#1440000
0aaaaa

#1445000
1aaaaa

#1450000
0aaaaa
b1 aaabp
b0 aaabs
b11 aaacw

#1455000
1aaaaa

#1460000
0aaaaa

#1465000
1aaaaa

#1470000
0aaaaa
b10 aaabt
b11 aaabu
b1 aaabw
b0 aaadc

#1475000
1aaaaa

#1480000
0aaaaa

#1485000
1aaaaa

#1490000
0aaaaa
b11 aaade

#1495000
1aaaaa

#1500000
0aaaaa
b1 aaaaz
b11 aaaba
b0 aaabc
b1 aaacb
b11 aaacc
b0 aaace

#1505000
1aaaaa

#1510000
0aaaaa

#1515000
1aaaaa

#1520000
0aaaaa
b11 aaadi
b0 aaadk

#1525000
1aaaaa

#1530000
0aaaaa
b10 aaadk

#1535000
1aaaaa

#1540000
0aaaaa

#1545000
1aaaaa

#1550000
0aaaaa

#1555000
1aaaaa

#1560000
0aaaaa
b1 aaacf
b0 aaaci

#1565000
1aaaaa

#1570000
0aaaaa

#1575000
1aaaaa

#1580000
0aaaaa

#1585000
1aaaaa

#1590000
0aaaaa
b1 aaabd
b100 aaabe
b10 aaabg

#1595000
1aaaaa

#1600000
0aaaaa
b1 aaabt
b10 aaabw

#1605000
1aaaaa

#1610000
0aaaaa
b100 aaada
b1 aaadc

#1615000
1aaaaa

#1620000
0aaaaa
b1 aaabx
b11 aaaby
b1 aaaca

#1625000
1aaaaa

#1630000
0aaaaa

#1635000
1aaaaa

#1640000
0aaaaa
b1111000 aaabx
b10 aaaca

#1645000
1aaaaa

#1650000
0aaaaa

#1655000
1aaaaa

#1660000
0aaaaa
b1111000 aaacb
b10 aaace

#1665000
1aaaaa

#1670000
0aaaaa

#1675000
1aaaaa

#1680000
0aaaaa
b10 aaabc
b1111000 aaacf
b100 aaacg
b1 aaaci

#1685000
1aaaaa

#1690000
0aaaaa

#1695000
1aaaaa

#1700000
0aaaaa

#1705000
1aaaaa

#1710000
0aaaaa
b1 aaabg

#1715000
1aaaaa

#1720000
0aaaaa
b100 aaack
b11 aaaco

#1725000
1aaaaa

#1730000
0aaaaa
b0 aaabh
b100 aaabi

#1735000
1aaaaa

#1740000
0aaaaa

#1745000
1aaaaa

#1750000
0aaaaa
b0 aaabl
b100 aaabm
b100 aaabq
b1 aaabs
b0 aaadp
b100 aaadq

#1755000
1aaaaa

#1760000
0aaaaa

#1765000
1aaaaa

#1770000
0aaaaa

#1775000
1aaaaa

#1780000
0aaaaa

#1785000
1aaaaa

#1790000
0aaaaa
b0 aaabp
b0 aaabs
b0 aaacv
b100 aaacw

#1795000
1aaaaa

#1800000
0aaaaa

#1805000
1aaaaa

#1810000
0aaaaa
b0 aaacz
b0 aaadc

#1815000
1aaaaa

#1820000
0aaaaa

#1825000
1aaaaa

#1830000
0aaaaa

#1835000
1aaaaa

#1840000
0aaaaa
b0 aaaaz
b100 aaaba
b0 aaabc
b0 aaacb
b100 aaacc
b0 aaace

#1845000
1aaaaa

#1850000
0aaaaa
b1 aaadl
b100000000000000111 aaadn
b1 aaado

#1855000
1aaaaa

#1860000
0aaaaa
b0 aaadh
b100 aaadi
b0 aaadk

#1865000
1aaaaa

#1870000
0aaaaa

#1875000
1aaaaa

#1880000
0aaaaa
b1 aaacr
b100000000000000010 aaact
b1 aaacu

#1885000
1aaaaa

#1890000
0aaaaa
b0 aaacf
b0 aaaci

#1895000
1aaaaa

#1900000
0aaaaa

#1905000
1aaaaa

#1910000
0aaaaa

#1915000
1aaaaa

#1920000
0aaaaa

#1925000
1aaaaa

#1930000
0aaaaa

#1935000
1aaaaa

#1940000
0aaaaa

#1945000
1aaaaa

#1950000
0aaaaa

#1955000
1aaaaa

#1960000
0aaaaa
b1111000 aaaaf
b1 aaaai

#1965000
1aaaaa

#1970000
0aaaaa

#1975000
1aaaaa

#1980000
0aaaaa
b1111000 aaaaj
b11 aaaal
b1 aaaam

