summer/recursive/ash.vcd
$date
     May 17, 2018       21:07:24
$end

$version
 SystemC 2.3.2-Accellera --- May 16 2018 17:23:16
$end

$timescale
     1 ps
$end

$scope module SystemC $end
$var wire    1  aaaaa  Clock       $end
$scope module Compare_24_In $end
$var wire   32  aaacz  data [31:0]  $end
$var wire   32  aaada  tag [31:0]  $end
$var wire   32  aaadb  address [31:0]  $end
$var wire   32  aaadc  port [31:0]  $end
$upscope $end
$scope module Constant_01_In $end
$var wire   32  aaaab  data [31:0]  $end
$var wire   32  aaaac  tag [31:0]  $end
$var wire   32  aaaad  address [31:0]  $end
$var wire   32  aaaae  port [31:0]  $end
$upscope $end
$scope module Constant_20_In $end
$var wire   32  aaacj  data [31:0]  $end
$var wire   32  aaack  tag [31:0]  $end
$var wire   32  aaacl  address [31:0]  $end
$var wire   32  aaacm  port [31:0]  $end
$upscope $end
$scope module Constant_27_In $end
$var wire   32  aaadl  data [31:0]  $end
$var wire   32  aaadm  tag [31:0]  $end
$var wire   32  aaadn  address [31:0]  $end
$var wire   32  aaado  port [31:0]  $end
$upscope $end
$scope module Constant_32_In $end
$var wire   32  aaadx  data [31:0]  $end
$var wire   32  aaady  tag [31:0]  $end
$var wire   32  aaadz  address [31:0]  $end
$var wire   32  aaaea  port [31:0]  $end
$upscope $end
$scope module Copy_22_In $end
$var wire   32  aaacr  data [31:0]  $end
$var wire   32  aaacs  tag [31:0]  $end
$var wire   32  aaact  address [31:0]  $end
$var wire   32  aaacu  port [31:0]  $end
$upscope $end
$scope module Copy_23_In $end
$var wire   32  aaacv  data [31:0]  $end
$var wire   32  aaacw  tag [31:0]  $end
$var wire   32  aaacx  address [31:0]  $end
$var wire   32  aaacy  port [31:0]  $end
$upscope $end
$scope module Copy_31_In $end
$var wire   32  aaadt  data [31:0]  $end
$var wire   32  aaadu  tag [31:0]  $end
$var wire   32  aaadv  address [31:0]  $end
$var wire   32  aaadw  port [31:0]  $end
$upscope $end
$scope module Delta_25_In $end
$var wire   32  aaadd  data [31:0]  $end
$var wire   32  aaade  tag [31:0]  $end
$var wire   32  aaadf  address [31:0]  $end
$var wire   32  aaadg  port [31:0]  $end
$upscope $end
$scope module Epsilon_03_In $end
$var wire   32  aaaaj  data [31:0]  $end
$var wire   32  aaaak  tag [31:0]  $end
$var wire   32  aaaal  address [31:0]  $end
$var wire   32  aaaam  port [31:0]  $end
$upscope $end
$scope module Gamma_12_In $end
$var wire   32  aaabl  data [31:0]  $end
$var wire   32  aaabm  tag [31:0]  $end
$var wire   32  aaabn  address [31:0]  $end
$var wire   32  aaabo  port [31:0]  $end
$upscope $end
$scope module Multiply_11_In $end
$var wire   32  aaabh  data [31:0]  $end
$var wire   32  aaabi  tag [31:0]  $end
$var wire   32  aaabj  address [31:0]  $end
$var wire   32  aaabk  port [31:0]  $end
$upscope $end
$scope module Sink_05_In $end
$var wire   32  aaaar  data [31:0]  $end
$var wire   32  aaaas  tag [31:0]  $end
$var wire   32  aaaat  address [31:0]  $end
$var wire   32  aaaau  port [31:0]  $end
$upscope $end
$scope module Sink_06_In $end
$var wire   32  aaaav  data [31:0]  $end
$var wire   32  aaaaw  tag [31:0]  $end
$var wire   32  aaaax  address [31:0]  $end
$var wire   32  aaaay  port [31:0]  $end
$upscope $end
$scope module Sink_10_In $end
$var wire   32  aaabd  data [31:0]  $end
$var wire   32  aaabe  tag [31:0]  $end
$var wire   32  aaabf  address [31:0]  $end
$var wire   32  aaabg  port [31:0]  $end
$upscope $end
$scope module Sink_13_In $end
$var wire   32  aaabp  data [31:0]  $end
$var wire   32  aaabq  tag [31:0]  $end
$var wire   32  aaabr  address [31:0]  $end
$var wire   32  aaabs  port [31:0]  $end
$upscope $end
$scope module Sink_14_In $end
$var wire   32  aaabt  data [31:0]  $end
$var wire   32  aaabu  tag [31:0]  $end
$var wire   32  aaabv  address [31:0]  $end
$var wire   32  aaabw  port [31:0]  $end
$upscope $end
$scope module Sink_15_In $end
$var wire   32  aaabx  data [31:0]  $end
$var wire   32  aaaby  tag [31:0]  $end
$var wire   32  aaabz  address [31:0]  $end
$var wire   32  aaaca  port [31:0]  $end
$upscope $end
$scope module Sink_16_In $end
$var wire   32  aaacb  data [31:0]  $end
$var wire   32  aaacc  tag [31:0]  $end
$var wire   32  aaacd  address [31:0]  $end
$var wire   32  aaace  port [31:0]  $end
$upscope $end
$scope module Sink_17_In $end
$var wire   32  aaacf  data [31:0]  $end
$var wire   32  aaacg  tag [31:0]  $end
$var wire   32  aaach  address [31:0]  $end
$var wire   32  aaaci  port [31:0]  $end
$upscope $end
$scope module Sink_30_In $end
$var wire   32  aaadp  data [31:0]  $end
$var wire   32  aaadq  tag [31:0]  $end
$var wire   32  aaadr  address [31:0]  $end
$var wire   32  aaads  port [31:0]  $end
$upscope $end
$scope module Sink_33_In $end
$var wire   32  aaaeb  data [31:0]  $end
$var wire   32  aaaec  tag [31:0]  $end
$var wire   32  aaaed  address [31:0]  $end
$var wire   32  aaaee  port [31:0]  $end
$upscope $end
$scope module Sink_34_In $end
$var wire   32  aaaef  data [31:0]  $end
$var wire   32  aaaeg  tag [31:0]  $end
$var wire   32  aaaeh  address [31:0]  $end
$var wire   32  aaaei  port [31:0]  $end
$upscope $end
$scope module Subtract_26_In $end
$var wire   32  aaadh  data [31:0]  $end
$var wire   32  aaadi  tag [31:0]  $end
$var wire   32  aaadj  address [31:0]  $end
$var wire   32  aaadk  port [31:0]  $end
$upscope $end
$scope module Tag_02_In $end
$var wire   32  aaaaf  data [31:0]  $end
$var wire   32  aaaag  tag [31:0]  $end
$var wire   32  aaaah  address [31:0]  $end
$var wire   32  aaaai  port [31:0]  $end
$upscope $end
$scope module Tag_21_In $end
$var wire   32  aaacn  data [31:0]  $end
$var wire   32  aaaco  tag [31:0]  $end
$var wire   32  aaacp  address [31:0]  $end
$var wire   32  aaacq  port [31:0]  $end
$upscope $end
$scope module Untag_04_In $end
$var wire   32  aaaan  data [31:0]  $end
$var wire   32  aaaao  tag [31:0]  $end
$var wire   32  aaaap  address [31:0]  $end
$var wire   32  aaaaq  port [31:0]  $end
$upscope $end
$scope module Untag_07_In $end
$var wire   32  aaaaz  data [31:0]  $end
$var wire   32  aaaba  tag [31:0]  $end
$var wire   32  aaabb  address [31:0]  $end
$var wire   32  aaabc  port [31:0]  $end
$upscope $end
$upscope $end
$enddefinitions  $end

$comment
All initial values are dumped below at time 0 sec = 0 timescale units.
$end

$dumpvars
0aaaaa
b0 aaaab
b0 aaaac
b0 aaaad
b0 aaaae
b0 aaaaf
b0 aaaag
b0 aaaah
b0 aaaai
b0 aaaaj
b0 aaaak
b0 aaaal
b0 aaaam
b0 aaaan
b0 aaaao
b0 aaaap
b0 aaaaq
b0 aaaar
b0 aaaas
b0 aaaat
b0 aaaau
b0 aaaav
b0 aaaaw
b0 aaaax
b0 aaaay
b0 aaaaz
b0 aaaba
b0 aaabb
b0 aaabc
b0 aaabd
b0 aaabe
b0 aaabf
b0 aaabg
b0 aaabh
b0 aaabi
b0 aaabj
b0 aaabk
b0 aaabl
b0 aaabm
b0 aaabn
b0 aaabo
b0 aaabp
b0 aaabq
b0 aaabr
b0 aaabs
b0 aaabt
b0 aaabu
b0 aaabv
b0 aaabw
b0 aaabx
b0 aaaby
b0 aaabz
b0 aaaca
b0 aaacb
b0 aaacc
b0 aaacd
b0 aaace
b0 aaacf
b0 aaacg
b0 aaach
b0 aaaci
b0 aaacj
b0 aaack
b0 aaacl
b0 aaacm
b0 aaacn
b0 aaaco
b0 aaacp
b0 aaacq
b0 aaacr
b0 aaacs
b0 aaact
b0 aaacu
b0 aaacv
b0 aaacw
b0 aaacx
b0 aaacy
b0 aaacz
b0 aaada
b0 aaadb
b0 aaadc
b0 aaadd
b0 aaade
b0 aaadf
b0 aaadg
b0 aaadh
b0 aaadi
b0 aaadj
b0 aaadk
b0 aaadl
b0 aaadm
b0 aaadn
b0 aaado
b0 aaadp
b0 aaadq
b0 aaadr
b0 aaads
b0 aaadt
b0 aaadu
b0 aaadv
b0 aaadw
b0 aaadx
b0 aaady
b0 aaadz
b0 aaaea
b0 aaaeb
b0 aaaec
b0 aaaed
b0 aaaee
b0 aaaef
b0 aaaeg
b0 aaaeh
b0 aaaei
$end

#5000
1aaaaa

#10000
0aaaaa

#15000
1aaaaa

#20000
0aaaaa
b1 aaaab
b1 aaaad

#25000
1aaaaa

#30000
0aaaaa

#35000
1aaaaa

#40000
0aaaaa
b100 aaaaf
b10 aaaah
b1 aaaai
b1 aaacj
b100000000000000000 aaacl

#45000
1aaaaa

#50000
0aaaaa

#55000
1aaaaa

#60000
0aaaaa
b100 aaaaj
b1 aaaak
b11 aaaal
b101 aaacn
b100000000000000001 aaacp
b1 aaacq

#65000
1aaaaa

#70000
0aaaaa

#75000
1aaaaa

#80000
0aaaaa
b101 aaacr
b1 aaacs
b100000000000000010 aaact
b1 aaacu

#85000
1aaaaa

#90000
0aaaaa

#95000
1aaaaa

#100000
0aaaaa
b101 aaacv
b1 aaacw
b100000000000000011 aaacx
b1 aaacy

#105000
1aaaaa

#110000
0aaaaa

#115000
1aaaaa

#120000
0aaaaa
b100 aaacb
b1 aaacc
b10000000000000110 aaacd
b1 aaace
b100 aaacf
b10000000000000111 aaach
b1 aaaci

#125000
1aaaaa

#130000
0aaaaa

#135000
1aaaaa

#140000
0aaaaa
b101 aaacz
b1 aaada
b100000000000000100 aaadb
b1 aaadc
b101 aaaeb
b1 aaaec
b110000000000000011 aaaed
b1 aaaee
b101 aaaef
b110000000000000100 aaaeh
b1 aaaei

#145000
1aaaaa

#150000
0aaaaa

#155000
1aaaaa

#160000
0aaaaa

#165000
1aaaaa

#170000
0aaaaa

#175000
1aaaaa

#180000
0aaaaa

#185000
1aaaaa

#190000
0aaaaa

#195000
1aaaaa

#200000
0aaaaa
b101 aaabh
b1 aaabi
b10000000000000001 aaabj
b1 aaabk

#205000
1aaaaa

#210000
0aaaaa
b101 aaadt
b1 aaadu
b110000000000000001 aaadv
b1 aaadw

#215000
1aaaaa

#220000
0aaaaa

#225000
1aaaaa

#230000
0aaaaa
b101 aaadx
b1 aaady
b110000000000000010 aaadz

#235000
1aaaaa

#240000
0aaaaa

#245000
1aaaaa

#250000
0aaaaa

#255000
1aaaaa

#260000
0aaaaa

#265000
1aaaaa

#270000
0aaaaa

#275000
1aaaaa

#280000
0aaaaa

#285000
1aaaaa

#290000
0aaaaa
b1 aaacz
b10 aaadc

#295000
1aaaaa

#300000
0aaaaa

#305000
1aaaaa

#310000
0aaaaa
b101 aaadd
b1 aaade
b100000000000000101 aaadf
b1 aaadg

#315000
1aaaaa

#320000
0aaaaa
b1 aaadd
b0 aaadg

#325000
1aaaaa

#330000
0aaaaa
b1 aaadh
b1 aaadi
b100000000000000110 aaadj
b10 aaadk

#335000
1aaaaa

#340000
0aaaaa
b101 aaadh
b1 aaadk

#345000
1aaaaa

#350000
0aaaaa

#355000
1aaaaa

#360000
0aaaaa

#365000
1aaaaa

#370000
0aaaaa
b100 aaadl
b1 aaadm
b100000000000000111 aaadn

#375000
1aaaaa

#380000
0aaaaa
b100 aaacn
b1 aaaco

#385000
1aaaaa

#390000
0aaaaa
b1 aaabl
b1 aaabm
b10000000000000010 aaabn

#395000
1aaaaa

#400000
0aaaaa
b100 aaacr
b10 aaacs
b111 aaadp
b1 aaadq
b110000000000000000 aaadr
b1 aaads

#405000
1aaaaa

#410000
0aaaaa

#415000
1aaaaa

#420000
0aaaaa
b100 aaacv
b10 aaacw

#425000
1aaaaa

#430000
0aaaaa

#435000
1aaaaa

#440000
0aaaaa
b111 aaaaf
b1 aaaag
b100 aaaeb
b10 aaaec

#445000
1aaaaa

#450000
0aaaaa
b100 aaacz
b10 aaada
b1 aaadc

#455000
1aaaaa

#460000
0aaaaa
b111 aaaaj
b10 aaaak

#465000
1aaaaa

#470000
0aaaaa

#475000
1aaaaa

#480000
0aaaaa

#485000
1aaaaa

#490000
0aaaaa

#495000
1aaaaa

#500000
0aaaaa

#505000
1aaaaa

#510000
0aaaaa
b111 aaacb
b10 aaacc

#515000
1aaaaa

#520000
0aaaaa
b100 aaabh
b10 aaabi
b100 aaadt
b10 aaadu

#525000
1aaaaa

#530000
0aaaaa

#535000
1aaaaa

#540000
0aaaaa
b100 aaadx
b10 aaady

#545000
1aaaaa

#550000
0aaaaa

#555000
1aaaaa

#560000
0aaaaa

#565000
1aaaaa

#570000
0aaaaa

#575000
1aaaaa

#580000
0aaaaa

#585000
1aaaaa

#590000
0aaaaa

#595000
1aaaaa

#600000
0aaaaa
b1 aaacz
b10 aaadc

#605000
1aaaaa

#610000
0aaaaa

#615000
1aaaaa

#620000
0aaaaa
b100 aaadd
b10 aaade
b1 aaadg

#625000
1aaaaa

#630000
0aaaaa
b1 aaadd
b0 aaadg

#635000
1aaaaa

#640000
0aaaaa
b1 aaadh
b10 aaadi
b10 aaadk

#645000
1aaaaa

#650000
0aaaaa
b100 aaadh
b1 aaadk

#655000
1aaaaa

#660000
0aaaaa

#665000
1aaaaa

#670000
0aaaaa

#675000
1aaaaa

#680000
0aaaaa
b11 aaadl
b10 aaadm

#685000
1aaaaa

#690000
0aaaaa
b11 aaacn
b10 aaaco

#695000
1aaaaa

#700000
0aaaaa
b10 aaabm

#705000
1aaaaa

#710000
0aaaaa
b11 aaacr
b11 aaacs
b10 aaadq

#715000
1aaaaa

#720000
0aaaaa

#725000
1aaaaa

#730000
0aaaaa
b11 aaacv
b11 aaacw

#735000
1aaaaa

#740000
0aaaaa

#745000
1aaaaa

#750000
0aaaaa
b10 aaaag
b11 aaaeb
b11 aaaec

#755000
1aaaaa

#760000
0aaaaa
b11 aaacz
b11 aaada
b1 aaadc

#765000
1aaaaa

#770000
0aaaaa
b11 aaaak

#775000
1aaaaa

#780000
0aaaaa

#785000
1aaaaa

#790000
0aaaaa

#795000
1aaaaa

#800000
0aaaaa

#805000
1aaaaa

#810000
0aaaaa

#815000
1aaaaa

#820000
0aaaaa
b11 aaacc

#825000
1aaaaa

#830000
0aaaaa
b11 aaabh
b11 aaabi
b11 aaadt
b11 aaadu

#835000
1aaaaa

#840000
0aaaaa

#845000
1aaaaa

#850000
0aaaaa
b11 aaadx
b11 aaady

#855000
1aaaaa

#860000
0aaaaa

#865000
1aaaaa

#870000
0aaaaa

#875000
1aaaaa

#880000
0aaaaa

#885000
1aaaaa

#890000
0aaaaa

#895000
1aaaaa

#900000
0aaaaa

#905000
1aaaaa

#910000
0aaaaa
b1 aaacz
b10 aaadc

#915000
1aaaaa

#920000
0aaaaa

#925000
1aaaaa

#930000
0aaaaa
b11 aaadd
b11 aaade
b1 aaadg

#935000
1aaaaa

#940000
0aaaaa
b1 aaadd
b0 aaadg

#945000
1aaaaa

#950000
0aaaaa
b1 aaadh
b11 aaadi
b10 aaadk

#955000
1aaaaa

#960000
0aaaaa
b11 aaadh
b1 aaadk

#965000
1aaaaa

#970000
0aaaaa

#975000
1aaaaa

#980000
0aaaaa

#985000
1aaaaa

#990000
0aaaaa
b10 aaadl
b11 aaadm

#995000
1aaaaa

#1000000
0aaaaa
b10 aaacn
b11 aaaco

#1005000
1aaaaa

#1010000
0aaaaa
b11 aaabm

#1015000
1aaaaa

#1020000
0aaaaa
b10 aaacr
b100 aaacs
b11 aaadq

#1025000
1aaaaa

#1030000
0aaaaa

#1035000
1aaaaa

#1040000
0aaaaa
b10 aaacv
b100 aaacw

#1045000
1aaaaa

#1050000
0aaaaa

#1055000
1aaaaa

#1060000
0aaaaa
b11 aaaag
b10 aaaeb
b100 aaaec

#1065000
1aaaaa

#1070000
0aaaaa
b10 aaacz
b100 aaada
b1 aaadc

#1075000
1aaaaa

#1080000
0aaaaa
b100 aaaak

#1085000
1aaaaa

#1090000
0aaaaa

#1095000
1aaaaa

#1100000
0aaaaa

#1105000
1aaaaa

#1110000
0aaaaa

#1115000
1aaaaa

#1120000
0aaaaa

#1125000
1aaaaa

#1130000
0aaaaa
b100 aaacc

#1135000
1aaaaa

#1140000
0aaaaa
b10 aaabh
b100 aaabi
b10 aaadt
b100 aaadu

#1145000
1aaaaa

#1150000
0aaaaa

#1155000
1aaaaa

#1160000
0aaaaa
b10 aaadx
b100 aaady

#1165000
1aaaaa

#1170000
0aaaaa

#1175000
1aaaaa

#1180000
0aaaaa

#1185000
1aaaaa

#1190000
0aaaaa

#1195000
1aaaaa

#1200000
0aaaaa

#1205000
1aaaaa

#1210000
0aaaaa

#1215000
1aaaaa

#1220000
0aaaaa
b1 aaacz
b10 aaadc

#1225000
1aaaaa

#1230000
0aaaaa

#1235000
1aaaaa

#1240000
0aaaaa
b10 aaadd
b100 aaade
b1 aaadg

#1245000
1aaaaa

#1250000
0aaaaa
b1 aaadd
b0 aaadg

#1255000
1aaaaa

#1260000
0aaaaa
b1 aaadh
b100 aaadi
b10 aaadk

#1265000
1aaaaa

#1270000
0aaaaa
b10 aaadh
b1 aaadk

#1275000
1aaaaa

#1280000
0aaaaa

#1285000
1aaaaa

#1290000
0aaaaa

#1295000
1aaaaa

#1300000
0aaaaa
b1 aaadl
b100 aaadm

#1305000
1aaaaa

#1310000
0aaaaa
b1 aaacn
b100 aaaco

#1315000
1aaaaa

#1320000
0aaaaa
b100 aaabm

#1325000
1aaaaa

#1330000
0aaaaa
b1 aaacr
b101 aaacs
b100 aaadq

#1335000
1aaaaa

#1340000
0aaaaa

#1345000
1aaaaa

#1350000
0aaaaa
b1 aaacv
b101 aaacw

#1355000
1aaaaa

#1360000
0aaaaa

#1365000
1aaaaa

#1370000
0aaaaa
b100 aaaag
b1 aaaeb
b101 aaaec

#1375000
1aaaaa

#1380000
0aaaaa
b101 aaada
b1 aaadc

#1385000
1aaaaa

#1390000
0aaaaa
b101 aaaak

#1395000
1aaaaa

#1400000
0aaaaa

#1405000
1aaaaa

#1410000
0aaaaa

#1415000
1aaaaa

#1420000
0aaaaa

#1425000
1aaaaa

#1430000
0aaaaa

#1435000
1aaaaa

#1440000
0aaaaa
b101 aaacc

#1445000
1aaaaa

#1450000
0aaaaa
b1 aaabh
b101 aaabi
b1 aaadt
b101 aaadu

#1455000
1aaaaa

#1460000
0aaaaa

#1465000
1aaaaa

#1470000
0aaaaa
b1 aaadx
b101 aaady

#1475000
1aaaaa

#1480000
0aaaaa

#1485000
1aaaaa

#1490000
0aaaaa

#1495000
1aaaaa

#1500000
0aaaaa

#1505000
1aaaaa

#1510000
0aaaaa

#1515000
1aaaaa

#1520000
0aaaaa

#1525000
1aaaaa

#1530000
0aaaaa
b10 aaadc

#1535000
1aaaaa

#1540000
0aaaaa

#1545000
1aaaaa

#1550000
0aaaaa
b101 aaade
b1 aaadg

#1555000
1aaaaa

#1560000
0aaaaa
b0 aaadd
b0 aaadg

#1565000
1aaaaa

#1570000
0aaaaa
b1 aaadh
b101 aaadi
b10 aaadk

#1575000
1aaaaa

#1580000
0aaaaa

#1585000
1aaaaa

#1590000
0aaaaa

#1595000
1aaaaa

#1600000
0aaaaa

#1605000
1aaaaa

#1610000
0aaaaa

#1615000
1aaaaa

#1620000
0aaaaa

#1625000
1aaaaa

#1630000
0aaaaa
b0 aaabl
b101 aaabm

#1635000
1aaaaa

#1640000
0aaaaa

#1645000
1aaaaa

#1650000
0aaaaa
b1 aaabl
b10 aaabo

#1655000
1aaaaa

#1660000
0aaaaa

#1665000
1aaaaa

#1670000
0aaaaa

#1675000
1aaaaa

#1680000
0aaaaa
b1 aaabp
b101 aaabq
b10000000000000011 aaabr
b1 aaabs

#1685000
1aaaaa

#1690000
0aaaaa

#1695000
1aaaaa

#1700000
0aaaaa
b1 aaaaj
b1 aaaam

#1705000
1aaaaa

#1710000
0aaaaa

#1715000
1aaaaa

#1720000
0aaaaa

#1725000
1aaaaa

#1730000
0aaaaa

#1735000
1aaaaa

#1740000
0aaaaa

#1745000
1aaaaa

#1750000
0aaaaa
b1 aaaaz
b101 aaaba
b111 aaabb
b1 aaabc

#1755000
1aaaaa

#1760000
0aaaaa

#1765000
1aaaaa

#1770000
0aaaaa

#1775000
1aaaaa

#1780000
0aaaaa
b1 aaabd
b100 aaabe
b10000000000000000 aaabf
b1 aaabg

#1785000
1aaaaa

#1790000
0aaaaa

#1795000
1aaaaa

#1800000
0aaaaa
b100 aaabi
b10 aaabk

#1805000
1aaaaa

#1810000
0aaaaa

#1815000
1aaaaa

#1820000
0aaaaa
b10 aaabl
b100 aaabm
b1 aaabo

#1825000
1aaaaa

#1830000
0aaaaa

#1835000
1aaaaa

#1840000
0aaaaa

#1845000
1aaaaa

#1850000
0aaaaa

#1855000
1aaaaa

#1860000
0aaaaa
b10 aaabp
b100 aaabq
b10 aaabt
b100 aaabu
b10000000000000100 aaabv
b1 aaabw

#1865000
1aaaaa

#1870000
0aaaaa
b10 aaaaj
b100 aaaak

#1875000
1aaaaa

#1880000
0aaaaa

#1885000
1aaaaa

#1890000
0aaaaa

#1895000
1aaaaa

#1900000
0aaaaa

#1905000
1aaaaa

#1910000
0aaaaa

#1915000
1aaaaa

#1920000
0aaaaa
b10 aaaaz
b100 aaaba

#1925000
1aaaaa

#1930000
0aaaaa

#1935000
1aaaaa

#1940000
0aaaaa

#1945000
1aaaaa

#1950000
0aaaaa
b10 aaabd
b11 aaabe

#1955000
1aaaaa

#1960000
0aaaaa

#1965000
1aaaaa

#1970000
0aaaaa
b10 aaabh
b11 aaabi

#1975000
1aaaaa

#1980000
0aaaaa

#1985000
1aaaaa

#1990000
0aaaaa
b110 aaabl
b11 aaabm

#1995000
1aaaaa

#2000000
0aaaaa

#2005000
1aaaaa

#2010000
0aaaaa

#2015000
1aaaaa

#2020000
0aaaaa

#2025000
1aaaaa

#2030000
0aaaaa
b110 aaabp
b11 aaabq
b110 aaabt
b11 aaabu

#2035000
1aaaaa

#2040000
0aaaaa
b110 aaaaj
b11 aaaak

#2045000
1aaaaa

#2050000
0aaaaa

#2055000
1aaaaa

#2060000
0aaaaa

#2065000
1aaaaa

#2070000
0aaaaa

#2075000
1aaaaa

#2080000
0aaaaa

#2085000
1aaaaa

#2090000
0aaaaa
b110 aaaaz
b11 aaaba

#2095000
1aaaaa

#2100000
0aaaaa

#2105000
1aaaaa

#2110000
0aaaaa

#2115000
1aaaaa

#2120000
0aaaaa
b110 aaabd
b10 aaabe

#2125000
1aaaaa

#2130000
0aaaaa

#2135000
1aaaaa

#2140000
0aaaaa
b110 aaabh
b10 aaabi

#2145000
1aaaaa

#2150000
0aaaaa

#2155000
1aaaaa

#2160000
0aaaaa
b11000 aaabl
b10 aaabm

#2165000
1aaaaa

#2170000
0aaaaa

#2175000
1aaaaa

#2180000
0aaaaa

#2185000
1aaaaa

#2190000
0aaaaa

#2195000
1aaaaa

#2200000
0aaaaa
b11000 aaabp
b10 aaabq
b11000 aaabt
b10 aaabu

#2205000
1aaaaa

#2210000
0aaaaa
b11000 aaaaj
b10 aaaak

#2215000
1aaaaa

#2220000
0aaaaa

#2225000
1aaaaa

#2230000
0aaaaa

#2235000
1aaaaa

#2240000
0aaaaa

#2245000
1aaaaa

#2250000
0aaaaa

#2255000
1aaaaa

#2260000
0aaaaa
b11000 aaaaz
b10 aaaba

#2265000
1aaaaa

#2270000
0aaaaa

#2275000
1aaaaa

#2280000
0aaaaa

#2285000
1aaaaa

#2290000
0aaaaa
b11000 aaabd
b1 aaabe

#2295000
1aaaaa

#2300000
0aaaaa

#2305000
1aaaaa

#2310000
0aaaaa
b11000 aaabh
b1 aaabi

#2315000
1aaaaa

#2320000
0aaaaa

#2325000
1aaaaa

#2330000
0aaaaa
b1111000 aaabl
b1 aaabm

#2335000
1aaaaa

#2340000
0aaaaa

#2345000
1aaaaa

#2350000
0aaaaa

#2355000
1aaaaa

#2360000
0aaaaa

#2365000
1aaaaa

#2370000
0aaaaa
b1111000 aaabp
b1 aaabq
b1111000 aaabt
b1 aaabu

#2375000
1aaaaa

#2380000
0aaaaa
b1111000 aaaaj
b1 aaaak

#2385000
1aaaaa

#2390000
0aaaaa

#2395000
1aaaaa

#2400000
0aaaaa
b1111000 aaaan
b1 aaaao
b100 aaaap
b1 aaaaq

#2405000
1aaaaa

#2410000
0aaaaa

#2415000
1aaaaa

#2420000
0aaaaa
b1111000 aaaar
b101 aaaat
b1 aaaau

#2425000
1aaaaa

#2430000
0aaaaa

#2435000
1aaaaa

#2440000
0aaaaa
b1111000 aaaav
b110 aaaax
b1 aaaay

